{
    "data": {
        "categories": [
            {
                "photo_url": "http://advonback/storage/Categories/lichnyje-veshhi.png",
                "category_name": "Личные вещи",
                "category_key": "lichnyje-veshhi",
                "count": 46
            },
            {
                "photo_url": "http://advonback/storage/Categories/avtotransport.png",
                "category_name": "Автотранспорт",
                "category_key": "avtotransport",
                "count": 60
            },
            {
                "photo_url": "http://advonback/storage/Categories/gruzoviki.png",
                "category_name": "Грузовики",
                "category_key": "gruzoviki",
                "count": 7
            },
            {
                "photo_url": "http://advonback/storage/Categories/mototransport.png",
                "category_name": "Мототранспорт",
                "category_key": "mototransport",
                "count": 18
            },
            {
                "photo_url": "http://advonback/storage/Categories/obshhestvennyj-transport.png",
                "category_name": "Общественный транспорт",
                "category_key": "obshhestvennyj-transport",
                "count": 3
            },
            {
                "photo_url": "http://advonback/storage/Categories/vodnaja-tehnika.png",
                "category_name": "Водная техника",
                "category_key": "vodnaja-tehnika",
                "count": 13
            },
            {
                "photo_url": "http://advonback/storage/Categories/letatelnyje-apparaty.png",
                "category_name": "Летательные аппараты",
                "category_key": "letatelnyje-apparaty",
                "count": 7
            },
            {
                "photo_url": "http://advonback/storage/Categories/doma-i-zdanija-eksterjer.png",
                "category_name": "Дома и здания, экстерьер",
                "category_key": "doma-i-zdanija-eksterjer",
                "count": 25
            },
            {
                "photo_url": "http://advonback/storage/Categories/bilbordy-reklamnyje-konstrukcii.png",
                "category_name": "Билборды / рекламные конструкции",
                "category_key": "bilbordy-reklamnyje-konstrukcii",
                "count": 8
            },
            {
                "photo_url": "http://advonback/storage/Categories/meroprijatija.png",
                "category_name": "Мероприятия",
                "category_key": "meroprijatija",
                "count": 4
            },
            {
                "photo_url": "http://advonback/storage/Categories/sobstvennaja-produkcija.png",
                "category_name": "На своей продукции",
                "category_key": "sobstvennaja-produkcija",
                "count": 5
            },
            {
                "photo_url": "http://advonback/storage/Categories/odezhda-ekipirovka.png",
                "category_name": "Спортивная экипировка",
                "category_key": "odezhda-ekipirovka",
                "count": 15
            },
            {
                "photo_url": "http://advonback/storage/Categories/stroitelstvo.png",
                "category_name": "Строительство",
                "category_key": "stroitelstvo",
                "count": 4
            },
            {
                "photo_url": "http://advonback/storage/Categories/strizhka-zhivotnyh.png",
                "category_name": "Животные",
                "category_key": "strizhka-zhivotnyh",
                "count": 18
            },
            {
                "photo_url": "http://advonback/storage/Categories/nestandartnoje-mesto.png",
                "category_name": "Нестандартное место",
                "category_key": "nestandartnoje-mesto",
                "count": 14
            }
        ],
        "advertisementList": {
            "current_page": 1,
            "data": [
                {
                    "advertisement_id": 1552,
                    "title": "Спонсоры для волейбольной команды",
                    "city": "Москва",
                    "latitude": 0,
                    "longitude": 0,
                    "image": "http://advonback/storage/products/old/June2021/xdzjXJQfIxJzmWn2dEQ8.jpg",
                    "is_allocate": false,
                    "is_top_country": false,
                    "is_urgent": false,
                    "date_start": null,
                    "date_start_name": "Дата начала",
                    "date_finish": null,
                    "date_finish_name": "Дата окончания",
                    "reach_audience": 800,
                    "reach_audience_name": "Охват",
                    "amount": 20,
                    "amount_name": "Количество экипировки",
                    "price_type": "договорная",
                    "price": "0",
                    "price_name": "Цена",
                    "category_name": "Спортивная экипировка",
                    "translation_currency_code": "руб",
                    "person": "Анна",
                    "company_is_verification": false,
                    "is_favorite": false
                },
                {
                    "advertisement_id": 508,
                    "title": "Кайт с вашей рекламой",
                    "city": "Москва",
                    "latitude": "55.7076",
                    "longitude": "37.629913",
                    "image": "http://advonback/storage/products/old/June2021/BaRH6KDtXzy5bcjD5qNX.jpg",
                    "is_allocate": false,
                    "is_top_country": false,
                    "is_urgent": false,
                    "date_start": null,
                    "date_start_name": "Дата начала",
                    "date_finish": null,
                    "date_finish_name": "Дата окончания",
                    "reach_audience": 1000,
                    "reach_audience_name": "Охват",
                    "amount": 1,
                    "amount_name": "Количество экипировки",
                    "price_type": "договорная",
                    "price": "0",
                    "price_name": "Цена",
                    "category_name": "Спортивная экипировка",
                    "translation_currency_code": "руб",
                    "person": "Антон Александрович Тарасов",
                    "company_is_verification": false,
                    "is_favorite": false
                },
                {
                    "advertisement_id": 44,
                    "title": "Подстрижём пуделя для рекламы",
                    "city": "Казань",
                    "latitude": "55.830433",
                    "longitude": "49.066082",
                    "image": "http://advonback/storage/products/old/June2021/agVEGZiwYliRGKUyS2VX.jpg",
                    "is_allocate": false,
                    "is_top_country": false,
                    "is_urgent": false,
                    "reach_audience": 20000,
                    "reach_audience_name": "Охват",
                    "price_type": "договорная",
                    "price": "0",
                    "price_name": "Цена",
                    "category_name": "Животные",
                    "translation_currency_code": "руб",
                    "person": "Николай Фёдоров",
                    "company_is_verification": false,
                    "is_favorite": false
                },
                {
                    "advertisement_id": 1518,
                    "title": "Реклама на посуде",
                    "city": "Смоленск",
                    "latitude": "54.79031",
                    "longitude": "32.050365",
                    "image": "http://advonback/storage/products/old/June2021/nyTu7BPnwavCqUxTZsnO.jpg",
                    "is_allocate": false,
                    "is_top_country": false,
                    "is_urgent": false,
                    "reach_audience": 34000,
                    "reach_audience_name": "Охват",
                    "price_type": "договорная",
                    "price": "0",
                    "price_name": "Цена",
                    "category_name": "Нестандартное место",
                    "translation_currency_code": "руб",
                    "person": "Sport Life",
                    "company_is_verification": false,
                    "is_favorite": false
                },
                {
                    "advertisement_id": 7,
                    "title": "edit dfg",
                    "city": "Днепр",
                    "latitude": "59.914524",
                    "longitude": "30.317085",
                    "image": "http://advonback/storage/product_additional_photos/September2021/W90jOM5j3oRHzbDsetK6.png",
                    "is_allocate": false,
                    "is_top_country": true,
                    "is_urgent": false,
                    "reach_audience": 3,
                    "reach_audience_name": "reach_audience_7",
                    "amount": 3,
                    "amount_name": "amount_7",
                    "length": "34",
                    "length_name": "length_7",
                    "length_hint": "length_hint_7",
                    "width": "45",
                    "width_name": "width_7",
                    "width_hint": "width_hint_7",
                    "price_type": "договорная",
                    "price": "0",
                    "price_name": "price_7",
                    "category_name": "Личные вещи",
                    "translation_currency_code": "руб",
                    "person": "test",
                    "company_is_verification": false,
                    "is_favorite": false
                },
                {
                    "advertisement_id": 6,
                    "title": "edit dfg",
                    "city": "Днепр",
                    "latitude": "59.914524",
                    "longitude": "30.317085",
                    "image": "http://advonback/storage/product_additional_photos/June2021/i4GEhE2TSjJfDNX6xFPo.png",
                    "is_allocate": false,
                    "is_top_country": false,
                    "is_urgent": false,
                    "reach_audience": 3,
                    "reach_audience_name": "reach_audience_7",
                    "amount": 3,
                    "amount_name": "amount_7",
                    "length": "34",
                    "length_name": "length_7",
                    "length_hint": "length_hint_7",
                    "width": "45",
                    "width_name": "width_7",
                    "width_hint": "width_hint_7",
                    "price_type": "договорная",
                    "price": "0",
                    "price_name": "price_7",
                    "category_name": "Личные вещи",
                    "translation_currency_code": "руб",
                    "person": "test",
                    "company_is_verification": false,
                    "is_favorite": false
                },
                {
                    "advertisement_id": 807,
                    "title": "Размещу рекламу на балконе.",
                    "city": "Витебск",
                    "latitude": 0,
                    "longitude": 0,
                    "image": "http://advonback/storage/products/old/June2021/cDrVEnAgj8sImwPAt5mc.jpg",
                    "is_allocate": false,
                    "is_top_country": false,
                    "is_urgent": false,
                    "reach_audience": 5000,
                    "reach_audience_name": "Охват",
                    "length": "500",
                    "length_name": "Длина",
                    "length_hint": "см",
                    "width": "100",
                    "width_name": "Ширина",
                    "width_hint": "см",
                    "price_type": "договорная",
                    "price": "0",
                    "price_name": "Цена",
                    "category_name": "Жилые дома",
                    "translation_currency_code": "руб",
                    "person": "Александр Гусев",
                    "company_is_verification": false,
                    "is_favorite": false
                },
                {
                    "advertisement_id": 1555,
                    "title": "Редкий спортивный седан TOYOTA ALTEZZA/ реклама и сотрудничество",
                    "city": "Нижний Новгород",
                    "latitude": "56.326866",
                    "longitude": "44.005878",
                    "image": "http://advonback/storage/products/old/June2021/DRgHXKSIl8NW47I0L3uz.jpg",
                    "is_allocate": false,
                    "is_top_country": false,
                    "is_urgent": false,
                    "reach_audience": 1000000,
                    "reach_audience_name": "Охват",
                    "amount": 1,
                    "amount_name": "Количество штук",
                    "length": "2000",
                    "length_name": "Длина",
                    "length_hint": "см",
                    "width": "800",
                    "width_name": "Ширина",
                    "width_hint": "см",
                    "price_type": "договорная",
                    "price": "0",
                    "price_name": "Цена",
                    "category_name": "Другое место",
                    "translation_currency_code": "руб",
                    "person": "Александр Соколов",
                    "company_is_verification": false,
                    "is_favorite": false
                },
                {
                    "advertisement_id": 58,
                    "title": "Наружная реклама | Казань (ТЦ Франт)",
                    "city": "Москва",
                    "latitude": "55.811043",
                    "longitude": "37.524879",
                    "image": "http://advonback/storage/products/old/June2021/IW9mYZyXxwump1HDgbyH.jpg",
                    "is_allocate": false,
                    "is_top_country": false,
                    "is_urgent": false,
                    "reach_audience": 65000,
                    "reach_audience_name": "Охват",
                    "amount": 13,
                    "amount_name": "Количество рекламных конструкций под рекламу",
                    "length": "150",
                    "length_name": "Длина",
                    "length_hint": "см",
                    "width": "44",
                    "width_name": "Ширина",
                    "width_hint": "см",
                    "price_type": "договорная",
                    "price": "0",
                    "price_name": "Цена",
                    "category_name": "Билборды / рекламные конструкции",
                    "translation_currency_code": "руб",
                    "person": "\"ATA-Company\" LLC",
                    "company_is_verification": false,
                    "is_favorite": false
                },
                {
                    "advertisement_id": 1536,
                    "title": "Test test",
                    "city": "Москва",
                    "latitude": 0,
                    "longitude": 0,
                    "image": "http://advonback/storage/products/old/June2021/GMi4X8NbsRYZh9Ov784m.jpg",
                    "is_allocate": false,
                    "is_top_country": false,
                    "is_urgent": false,
                    "reach_audience": 3,
                    "reach_audience_name": "Охват",
                    "amount": 1,
                    "amount_name": "Количество штук",
                    "length": "123",
                    "length_name": "Длина",
                    "length_hint": "см",
                    "width": "300",
                    "width_name": "Ширина",
                    "width_hint": "см",
                    "price_type": "договорная",
                    "price": "0",
                    "price_name": "Цена",
                    "category_name": "Кузов",
                    "translation_currency_code": "руб",
                    "person": "iskytest",
                    "company_is_verification": false,
                    "is_favorite": false
                }
            ],
            "first_page_url": "http://advonback/api/v1/getAdvertisementsBySearch?search_type=advertisement&order=price_asc&page=1",
            "from": 1,
            "last_page": 25,
            "last_page_url": "http://advonback/api/v1/getAdvertisementsBySearch?search_type=advertisement&order=price_asc&page=25",
            "links": [
                {
                    "url": null,
                    "label": "&laquo; Previous",
                    "active": false
                },
                {
                    "url": "http://advonback/api/v1/getAdvertisementsBySearch?search_type=advertisement&order=price_asc&page=1",
                    "label": "1",
                    "active": true
                },
                {
                    "url": "http://advonback/api/v1/getAdvertisementsBySearch?search_type=advertisement&order=price_asc&page=2",
                    "label": "2",
                    "active": false
                },
                {
                    "url": "http://advonback/api/v1/getAdvertisementsBySearch?search_type=advertisement&order=price_asc&page=3",
                    "label": "3",
                    "active": false
                },
                {
                    "url": "http://advonback/api/v1/getAdvertisementsBySearch?search_type=advertisement&order=price_asc&page=4",
                    "label": "4",
                    "active": false
                },
                {
                    "url": "http://advonback/api/v1/getAdvertisementsBySearch?search_type=advertisement&order=price_asc&page=5",
                    "label": "5",
                    "active": false
                },
                {
                    "url": "http://advonback/api/v1/getAdvertisementsBySearch?search_type=advertisement&order=price_asc&page=6",
                    "label": "6",
                    "active": false
                },
                {
                    "url": "http://advonback/api/v1/getAdvertisementsBySearch?search_type=advertisement&order=price_asc&page=7",
                    "label": "7",
                    "active": false
                },
                {
                    "url": "http://advonback/api/v1/getAdvertisementsBySearch?search_type=advertisement&order=price_asc&page=8",
                    "label": "8",
                    "active": false
                },
                {
                    "url": "http://advonback/api/v1/getAdvertisementsBySearch?search_type=advertisement&order=price_asc&page=9",
                    "label": "9",
                    "active": false
                },
                {
                    "url": "http://advonback/api/v1/getAdvertisementsBySearch?search_type=advertisement&order=price_asc&page=10",
                    "label": "10",
                    "active": false
                },
                {
                    "url": null,
                    "label": "...",
                    "active": false
                },
                {
                    "url": "http://advonback/api/v1/getAdvertisementsBySearch?search_type=advertisement&order=price_asc&page=24",
                    "label": "24",
                    "active": false
                },
                {
                    "url": "http://advonback/api/v1/getAdvertisementsBySearch?search_type=advertisement&order=price_asc&page=25",
                    "label": "25",
                    "active": false
                },
                {
                    "url": "http://advonback/api/v1/getAdvertisementsBySearch?search_type=advertisement&order=price_asc&page=2",
                    "label": "Next &raquo;",
                    "active": false
                }
            ],
            "next_page_url": "http://advonback/api/v1/getAdvertisementsBySearch?search_type=advertisement&order=price_asc&page=2",
            "path": "http://advonback/api/v1/getAdvertisementsBySearch",
            "per_page": 10,
            "prev_page_url": null,
            "to": 10,
            "total": 247
        }
    }
}
