{
    "data": {
        "advertisementList": {
            "current_page": 1,
            "data": [
                {
                    "advertisement_id": 6,
                    "title": "title",
                    "price": "12",
                    "price_type": "торг возможен",
                    "number_views": 0,
                    "number_contacts": 0,
                    "is_hide": false,
                    "image": "http://advonback/storage/product_additional_photos/June2021/i4GEhE2TSjJfDNX6xFPo.png",
                    "date_start": "",
                    "date_finish": "",
                    "category_name": "Личные вещи",
                    "payment_name": "в день",
                    "translation_currency_code": "руб",
                    "number_messages": 0
                },
                {
                    "advertisement_id": 5,
                    "title": "title",
                    "price": "12",
                    "price_type": "торг возможен",
                    "number_views": 0,
                    "number_contacts": 0,
                    "is_hide": false,
                    "image": "http://advonback/storage/product_additional_photos/June2021/1axLPgBIG5NNGl6UxEHy.png",
                    "date_start": "",
                    "date_finish": "",
                    "category_name": "Личные вещи",
                    "payment_name": "в день",
                    "translation_currency_code": "руб",
                    "number_messages": 0
                },
                {
                    "advertisement_id": 7,
                    "title": "title",
                    "price": "0",
                    "price_type": "договорная",
                    "number_views": 0,
                    "number_contacts": 0,
                    "is_hide": false,
                    "image": "http://advonback/storage/product_additional_photos/June2021/8kNsqQIJhcoGR0Op0FQe.png",
                    "date_start": "",
                    "date_finish": "",
                    "category_name": "Личные вещи",
                    "payment_name": "в день",
                    "translation_currency_code": "руб",
                    "number_messages": 1
                },
                {
                    "advertisement_id": 9,
                    "title": "title",
                    "price": "0",
                    "price_type": "договорная",
                    "number_views": 0,
                    "number_contacts": 0,
                    "is_hide": false,
                    "image": "http://advonback/storage/product_additional_photos/June2021/C58y8heJh8Pyv3GH0alY.png",
                    "date_start": "",
                    "date_finish": "",
                    "category_name": "Личные вещи",
                    "payment_name": "в день",
                    "translation_currency_code": "руб",
                    "number_messages": 0
                },
                {
                    "advertisement_id": 1,
                    "title": "title",
                    "price": "12",
                    "price_type": "торг возможен",
                    "number_views": 11,
                    "number_contacts": 7,
                    "is_hide": false,
                    "image": "http://advonback/storage/product_additional_photos/June2021/duym5mOs88LEdWulwyhi.png",
                    "date_start": "",
                    "date_finish": "",
                    "category_name": "Промокампании",
                    "payment_name": "в день",
                    "translation_currency_code": "руб",
                    "number_messages": 3
                },
                {
                    "advertisement_id": 10,
                    "title": "title",
                    "price": "0",
                    "price_type": "договорная",
                    "number_views": 0,
                    "number_contacts": 0,
                    "is_hide": false,
                    "image": "http://advonback/storage/product_additional_photos/June2021/OHUV7xyWEuSIcftqF9Zw.png",
                    "date_start": "",
                    "date_finish": "",
                    "category_name": "Личные вещи",
                    "payment_name": "в день",
                    "translation_currency_code": "руб",
                    "number_messages": 0
                },
                {
                    "advertisement_id": 8,
                    "title": "title",
                    "price": "0",
                    "price_type": "договорная",
                    "number_views": 0,
                    "number_contacts": 0,
                    "is_hide": false,
                    "image": "http://advonback/storage/product_additional_photos/June2021/blANHlnnUJWfC7dw1Xmz.png",
                    "date_start": "",
                    "date_finish": "",
                    "category_name": "Личные вещи",
                    "payment_name": "в день",
                    "translation_currency_code": "руб",
                    "number_messages": 0
                },
                {
                    "advertisement_id": 20,
                    "title": "Путешествие на авто",
                    "price": "5000",
                    "price_type": "торг не возможен",
                    "number_views": 24,
                    "number_contacts": 0,
                    "is_hide": false,
                    "image": "http://advonback/storage/advertisements/old/June2021/REbi1k5C9npYKwDUByfo.jpg",
                    "date_start": "",
                    "date_finish": "",
                    "category_name": "Кузов",
                    "payment_name": "в неделю",
                    "translation_currency_code": "руб",
                    "number_messages": 0
                },
                {
                    "advertisement_id": 11,
                    "title": "title",
                    "price": "0",
                    "price_type": "договорная",
                    "number_views": 0,
                    "number_contacts": 0,
                    "is_hide": false,
                    "image": "http://advonback/storage/product_additional_photos/June2021/xPEN2jyVXhu3FnzLh2pR.png",
                    "date_start": "",
                    "date_finish": "",
                    "category_name": "Личные вещи",
                    "payment_name": "в день",
                    "translation_currency_code": "руб",
                    "number_messages": 0
                },
                {
                    "advertisement_id": 12,
                    "title": "title",
                    "price": "12",
                    "price_type": "торг не возможен",
                    "number_views": 0,
                    "number_contacts": 0,
                    "is_hide": false,
                    "image": "http://advonback/storage/product_additional_photos/June2021/1JiGQGL1vvo9PnoE4x4R.png",
                    "date_start": "",
                    "date_finish": "",
                    "category_name": "Личные вещи",
                    "payment_name": "в месяц",
                    "translation_currency_code": "руб",
                    "number_messages": 0
                }
            ],
            "first_page_url": "http://advonback/api/v1/getAdvertisementListForUser?page=1",
            "from": 1,
            "last_page": 2,
            "last_page_url": "http://advonback/api/v1/getAdvertisementListForUser?page=2",
            "links": [
                {
                    "url": null,
                    "label": "&laquo; Previous",
                    "active": false
                },
                {
                    "url": "http://advonback/api/v1/getAdvertisementListForUser?page=1",
                    "label": "1",
                    "active": true
                },
                {
                    "url": "http://advonback/api/v1/getAdvertisementListForUser?page=2",
                    "label": "2",
                    "active": false
                },
                {
                    "url": "http://advonback/api/v1/getAdvertisementListForUser?page=2",
                    "label": "Next &raquo;",
                    "active": false
                }
            ],
            "next_page_url": "http://advonback/api/v1/getAdvertisementListForUser?page=2",
            "path": "http://advonback/api/v1/getAdvertisementListForUser",
            "per_page": 10,
            "prev_page_url": null,
            "to": 10,
            "total": 12
        },
        "categories": [
            {
                "category_id": 7,
                "photo_url": "http://advonback/storage/Categories/lichnyje-veshhi.png",
                "category_name": "Личные вещи"
            },
            {
                "category_id": 46,
                "photo_url": "http://advonback/storage/Categories/mediaprojekty.png",
                "category_name": "Медиапроекты"
            },
            {
                "category_id": 11,
                "photo_url": "http://advonback/storage/Categories/avtotransport.png",
                "category_name": "Автотранспорт"
            }
        ],
        "number_active": 2,
        "number_passive": 12
    }
}
