{
    "data": {
        "current_page": 1,
        "data": [
            {
                "company_id": 22,
                "company_name": "Авиценна-Строй",
                "company_phone": 89149011475,
                "latitude": "52.253399",
                "longitude": "104.352936",
                "city": "Иркутск",
                "company_logo": "http://advonback/storage/companies/old/July2021/8vpkxV2MfcqK64qfX9nU.jpg",
                "company_contacts": [],
                "advertisement_count": 3,
                "is_top": true,
                "is_allocate": false
            },
            {
                "company_id": 4,
                "company_name": "\"ATA-Company\" LLC",
                "company_phone": 79262820720,
                "latitude": "55.811043",
                "longitude": "37.524879",
                "city": "Москва",
                "company_logo": "http://advonback/storage/companies/old/July2021/LiAi3hnIcxhz9sKeArDp.jpg",
                "company_contacts": [
                    {
                        "photo_url": "http://advonback/storage/contacts/July2021/8rS2Cq5Wuu63YnrXjMIL.jpg",
                        "name": "Telegram",
                        "values": "cxfgsdf"
                    },
                    {
                        "photo_url": "http://advonback/storage/contacts/July2021/jUZfx6NgRwGN9GfTGMZT.jpg",
                        "name": "Viber",
                        "values": "tfghyrt"
                    }
                ],
                "advertisement_count": 7,
                "is_top": true,
                "is_allocate": false
            },
            {
                "company_id": 437,
                "company_name": "Спортивный клуб \"СПАРТА\"",
                "company_phone": 7486245,
                "latitude": "52.966846",
                "longitude": "36.062489",
                "city": "Орел",
                "company_logo": "http://advonback/storage/companies/old/July2021/2xLOfPDn8CxhLAgWhLg0.jpg",
                "company_contacts": [],
                "advertisement_count": 1,
                "is_top": false,
                "is_allocate": false
            },
            {
                "company_id": 65,
                "company_name": "Кофе Like в Чите",
                "company_phone": 88002509339,
                "latitude": "52.045738",
                "longitude": "113.461517",
                "city": "Чита",
                "company_logo": "http://advonback/storage/companies/old/July2021/lPTEVH208UPvdNcvtXie.jpg",
                "company_contacts": [],
                "advertisement_count": 2,
                "is_top": false,
                "is_allocate": false
            },
            {
                "company_id": 32,
                "company_name": "VAG Premium",
                "company_phone": 89120130127,
                "latitude": "60.015171",
                "longitude": "30.290718",
                "city": "Санкт-Петербург",
                "company_logo": "http://advonback/storage/companies/old/July2021/Hrr7zzHAbm9NZXJ2932X.jpg",
                "company_contacts": [],
                "advertisement_count": 3,
                "is_top": false,
                "is_allocate": true
            },
            {
                "company_id": 35,
                "company_name": "Кинросс в России",
                "company_phone": 89147636157,
                "latitude": "64.731926",
                "longitude": "177.49025",
                "city": "Анадырь",
                "company_logo": "http://advonback/storage/companies/old/July2021/EfESCjaEXYbi6tiLIY5p.jpg",
                "company_contacts": [],
                "advertisement_count": 2,
                "is_top": false,
                "is_allocate": false
            },
            {
                "company_id": 42,
                "company_name": "Кафе АВТОГРАФ",
                "company_phone": 89097634698,
                "latitude": "48.515812",
                "longitude": "135.101532",
                "city": "Хабаровск",
                "company_logo": "http://advonback/storage/companies/old/July2021/k289KpqoY8aV6ecNDojY.jpg",
                "company_contacts": [],
                "advertisement_count": 1,
                "is_top": false,
                "is_allocate": false
            },
            {
                "company_id": 74,
                "company_name": "Учебный центр Витязь на 1-ой Новопроточной улице",
                "company_phone": 7,
                "latitude": "52.048553",
                "longitude": "113.466583",
                "city": "Чита",
                "company_logo": "http://advonback/storage/companies/old/July2021/AK96YI3wE3Z5dfPDyMQL.jpg",
                "company_contacts": [],
                "advertisement_count": 1,
                "is_top": false,
                "is_allocate": false
            },
            {
                "company_id": 76,
                "company_name": "MANHATTAN | Bar",
                "company_phone": 7,
                "latitude": "54.988022",
                "longitude": "73.377357",
                "city": "Омск",
                "company_logo": "http://advonback/storage/companies/old/July2021/HWZR20PCs2275LRegpWv.jpg",
                "company_contacts": [],
                "advertisement_count": 1,
                "is_top": false,
                "is_allocate": false
            },
            {
                "company_id": 79,
                "company_name": "King Shine",
                "company_phone": 8831283,
                "latitude": "56.295536",
                "longitude": "43.938278",
                "city": "Нижний Новгород",
                "company_logo": "http://advonback/storage/companies/old/July2021/qAmUvS0qJzMyKJ0kHkWA.jpg",
                "company_contacts": [],
                "advertisement_count": 2,
                "is_top": false,
                "is_allocate": false
            }
        ],
        "first_page_url": "http://advonback/api/v1/getCompanyListForGuest?page=1",
        "from": 1,
        "last_page": 2,
        "last_page_url": "http://advonback/api/v1/getCompanyListForGuest?page=2",
        "links": [
            {
                "url": null,
                "label": "&laquo; Previous",
                "active": false
            },
            {
                "url": "http://advonback/api/v1/getCompanyListForGuest?page=1",
                "label": "1",
                "active": true
            },
            {
                "url": "http://advonback/api/v1/getCompanyListForGuest?page=2",
                "label": "2",
                "active": false
            },
            {
                "url": "http://advonback/api/v1/getCompanyListForGuest?page=2",
                "label": "Next &raquo;",
                "active": false
            }
        ],
        "next_page_url": "http://advonback/api/v1/getCompanyListForGuest?page=2",
        "path": "http://advonback/api/v1/getCompanyListForGuest",
        "per_page": 10,
        "prev_page_url": null,
        "to": 10,
        "total": 19
    }
}
